%YAML 1.1
%TAG !u! tag:unity3d.com,2011:
--- !u!78 &1
TagManager:
  serializedVersion: 2
  tags: []
  layers:
  - Default
  - TransparentFX
  - Ignore Raycast
  - 
  - Water
  - UI
  - 
  - 
  - Ground
  - 
  - 
  - 
  - 
  - 
  - 
  - 
  - 
  - 
  - 
  - 
  - 
  - 
  - 
  - 
  - 
  - 
  - 
  - 
  - 
  - 
  - 
  - 
  m_SortingLayers:
  - name: Default
    uniqueID: 0
    locked: 0
  - name: Backdrop
    uniqueID: 2203090781
    locked: 0
  - name: Background
    uniqueID: 2808565801
    locked: 0
  - name: Player
    uniqueID: 1494781139
    locked: 0
  - name: LightEmitter
    uniqueID: 680004309
    locked: 0
  - name: Playerground
    uniqueID: 493218819
    locked: 0
  - name: Foreground
    uniqueID: 2285162441
    locked: 0
